2020-05-09 11:50:34,796 - logs… - INFO - 接口测试用例：test_api_04_05.py  ======== test  start ========
2020-05-09 11:50:34,797 - logs… - INFO - http://10.168.2.104:8000/api/details/
2020-05-09 11:50:34,798 - logs… - INFO - {'furnaceNo': 3, 'areaNo': 4, 'dur_time': 'aaa'}
2020-05-09 11:50:34,841 - logs… - INFO - <Response [500]>
2020-05-09 11:50:34,844 - logs… - INFO - test_api_04_05.py : File
